{"path":"api-docs/getting-started/making-requests","templateID":0,"sharedPropsHashes":{"nav":"ZHaw9F","sidebarTree":"Z427i9","namespace":"Zd6xn0"},"localProps":{"version":"1.3","crumbs":[{"content":"API Docs","to":"/api-docs"},{"content":"Getting Started","to":"/api-docs/getting-started"},{"content":"Quick Start","to":"/api-docs/getting-started/making-requests"}],"page":{"meta":{"title":"Quick Start - Getting Started - API Docs","url":"/api-docs/getting-started/making-requests","description":"REST API Quick Start\n\n\n\nOn This Page\n\nAuthentication\n\nMaking Requests\n\nGet all Products\n\nGet Ten Products Sorted by Name\n\nCreate a Product\n\nNext Steps\n\n..."},"title":"Quick Start","parsedPath":["pages","/api-docs","data","children",0,"data","children",0],"rootPagePath":"/api-docs","path":"/api-docs/getting-started/making-requests","isSubpage":true,"route":{"path":"/making-requests"},"data":{"blocks":[{"type":"text","data":"# REST API Quick Start\n\n<div class=\"otp\" id=\"no-index\">\n\n### On This Page\n- [Authentication](#authentication)\n- [Making Requests](#making-requests)\n- [Get all Products](#get-all-products)\n- [Get Ten Products Sorted by Name](#get-ten-products-sorted-by-name)\n- [Create a Product](#create-a-product)\n- [Next Steps](#next-steps)\n- [Troubleshooting](#troubleshooting)\n\n</div>\n\nThis Quick Start guide will take you through the minimum required steps to begin making API requests against BigCommerce's **V2 and V3 REST APIs**.\n\nBy the end of this guide, you’ll be able to:\n* get a list of products\n* create a product\n* troubleshoot common errors\n\n### Prerequisites\n* [Store API Credentials](/api-docs/getting-started/authentication#authentication_getting-api-credentials) (with [Scope](/api-docs/getting-started/authentication#authentication_oauth-scopes) set to `Products` `Modify`)\n\n## Authentication\n\nFor simplicity, we'll be using [Store API Credentials](https://developer.bigcommerce.com/api-docs/getting-started/authentication#obtaining-store-api-credentials) in this tutorial. To obtain Store API credentials, do one of the following:\n1. Generate [Store API Credentials](https://developer.bigcommerce.com/api-docs/getting-started/authentication#obtaining-store-api-credentials) in your store's control panel (if you're a store owner).\n2. Request your store owner to generate API credentials on your behalf.\n3. Generate Store API Credentials by signing up for a [free trial](https://www.bigcommerce.com/essentials/free-trial/).\n\nFor more information on authentication and types of API credentials, see:\n* [Authentication](https://developer.bigcommerce.com/api-docs/getting-started/authentication)\n* [Building an App](https://developer.bigcommerce.com/api-docs/getting-started/building-apps-bigcommerce/building-apps)\n\n## Making Requests\n\nThe easiest way to experiment with BigCommerce REST APIs is via the built-in **Request Runner**:\n\n[![Open in Request Runner](https://storage.googleapis.com/bigcommerce-production-dev-center/images/Open-Request-Runner.svg)](https://developer.bigcommerce.com/api-reference/store-management/catalog/products/getproducts#requestrunner)\n\nJust copy and paste your `store_hash`, `client_id` ID, and `access_token` into the form, then click **Send**\n\nIf you use **Visual Studio Code**, another simple way to make API requests is with the [REST Client](https://marketplace.visualstudio.com/items?itemName=humao.rest-client) extension. Once you have it installed, create a new file called `bigcommerce.http` and paste in the following:\n\n```http\n@ACCESS_TOKEN = your_access_token\n@CLIENT_ID = your_client_id\n@STORE_HASH = your_store_hash\n\n###\n\nGET https://api.bigcommerce.com/stores/{{STORE_HASH}}/v3/catalog/products\nX-Auth-Token: {{ACCESS_TOKEN}}\nX-Auth-Client: {{CLIENT_ID}}\nContent-Type: application/json\nAccept: application/json\n```\n\nSave and you'll see the **send request** link above `GET`. Click **send request** and the response will open in a split window.\n\nAlternatively, you can import the [Specification File](https://developer.bigcommerce.com/api-reference/store-management/catalog/BigCommerce_Catalog_API.oas2.json) into [Postman](https://www.getpostman.com/) (or any other tool that can import [Open API Specification](https://swagger.io/specification/) files).\n\n## Get all Products\n\nTo get a paginated list of all products, make a `GET` request to `/catalog/products`:\n\n```http\nGET https://api.bigcommerce.com/stores/{{STORE_HASH}}/v3/catalog/products\nX-Auth-Token: {{ACCESS_TOKEN}}\nX-Auth-Client: {{CLIENT_ID}}\nContent-Type: application/json\nAccept: application/json\n```\n\n[![Open in Request Runner](https://storage.googleapis.com/bigcommerce-production-dev-center/images/Open-Request-Runner.svg)](https://developer.bigcommerce.com/api-reference/store-management/catalog/products/getproducts#requestrunner)\n\n**Example Response:**\n\n```json\n{\n  \"data\": [\n    {\n      \"id\": 174,\n      \"name\": \"1L Le Parfait Jar\",\n      \"type\": \"physical\",\n      \"sku\": \"\",\n      \"description\": \"<p><span>Lorem ipsum dolor sit amet, consectetur adipiscing elit. Morbi vel metus ac est egestas porta sed quis erat. Integer id nulla massa. Proin vitae enim nisi. Praesent non dignissim nulla. Nulla mattis id massa ac pharetra. Mauris et nisi in dolor aliquam sodales. Aliquam dui nisl, dictum quis leo sit amet, rutrum volutpat metus. Curabitur libero nunc, interdum ac libero non, tristique porttitor metus. Ut non dignissim lorem, in vestibulum leo. Vivamus sodales quis turpis eget.</span></p>\",\n      ...\n    },\n    ...\n    \"meta\": {\n      \"pagination\": {\n        \"total\": 120,\n        \"count\": 30,\n        \"per_page\": 30,\n        \"current_page\": 1,\n        \"total_pages\": 4,\n        \"links\": {\n          \"next\": \"?page=2\",\n          \"current\": \"?page=1\"\n        },\n        \"too_many\": false\n      }\n  }\n\n```\n\n**Note:**: replace `{store_hash}` with the store hash shown when generating the API credentials):\n\n## Get Ten Products Sorted by Name\n\nResults can be filtered and sorted by appending query string parameters to the end of the URL:\n\n```http\nGET https://api.bigcommerce.com/stores/{{STORE_HASH}}/v3/catalog/products?limit=10&sort=name\nX-Auth-Token: {{ACCESS_TOKEN}}\nX-Auth-Client: {{CLIENT_ID}}\nContent-Type: application/json\nAccept: application/json\n```\n\n[![Open in Request Runner](https://storage.googleapis.com/bigcommerce-production-dev-center/images/Open-Request-Runner.svg)](https://developer.bigcommerce.com/api-reference/store-management/catalog/products/getproducts#requestrunner)\n\n**Example Response:**\n\n```json\n{\n  \"data\": [\n    {\n      \"id\": 174,\n      \"name\": \"1L Le Parfait Jar\",\n      \"type\": \"physical\",\n      \"sku\": \"\",\n      \"description\": \"<p><span>Lorem ipsum dolor sit amet, consectetur adipiscing elit. Morbi vel metus ac est egestas porta sed quis erat. Integer id nulla massa. Proin vitae enim nisi. Praesent non dignissim nulla. Nulla mattis id massa ac pharetra. Mauris et nisi in dolor aliquam sodales. Aliquam dui nisl, dictum quis leo sit amet, rutrum volutpat metus. Curabitur libero nunc, interdum ac libero non, tristique porttitor metus. Ut non dignissim lorem, in vestibulum leo. Vivamus sodales quis turpis eget.</span></p>\",\n      ...\n    },\n    ...\n    \"meta\": {\n      \"pagination\": {\n        \"total\": 120,\n        \"count\": 10,\n        \"per_page\": 10,\n        \"current_page\": 1,\n        ...\n      }\n  }\n```\n\nFor a list of product filters, see [API Reference > Products > Get All Products > Request Parameters > Query Parameters](https://developer.bigcommerce.com/api-reference/store-management/catalog/products/getproducts).\n\n## Create a Product\n\nBefore we can create a product, we'll first need to get the `id` of a `category` to add the product to (`categories` is a required field for creating products). We can do this with a `GET` request to `/catalog/categories`:\n\n```http\nGET https://api.bigcommerce.com/stores/{store_hash}/v3/catalog/categories\nX-Auth-Token: {{ACCESS_TOKEN}}\nX-Auth-Client: {{CLIENT_ID}}\nContent-Type: application/json\nAccept: application/json\n```\n\n[![Open in Request Runner](https://storage.googleapis.com/bigcommerce-production-dev-center/images/Open-Request-Runner.svg)](https://developer.bigcommerce.com/api-reference/store-management/catalog/category/getcategories#requestrunner)\n\n**Example Response**:\n\n```json\n{\n  \"data\": [\n    {\n      \"custom_url\": {\n        \"is_customized\": false,\n        \"url\": \"/t-shirts/\"\n      },\n      \"default_product_sort\": \"use_store_settings\",\n      \"description\": \"The Best T-Shirts\",\n      \"id\": 2,\n      ...\n    },\n    ...\n  ],\n  ...\n}\n```\n\nOnce we have a category `id`, we can create a product with the minimum required fields (notice the `id` from the previous request in the `categories` array):\n\n```http\nPOST https://api.bigcommerce.com/stores/{store_hash}/v3/catalog/products\nX-Auth-Token: {{ACCESS_TOKEN}}\nX-Auth-Client: {{CLIENT_ID}}\nContent-Type: application/json\nAccept: application/json\n\n{\n  \"name\": \"BigCommerce Hoodie\",\n  \"type\": \"physical\",\n  \"weight\": 5,\n  \"width\": 12,\n  \"price\": 25.99,\n  \"categories\": [\n    2\n  ],\n}\n```\n\n[![Open in Request Runner](https://storage.googleapis.com/bigcommerce-production-dev-center/images/Open-Request-Runner.svg)](https://developer.bigcommerce.com/api-reference/store-management/catalog/products/createproduct#requestrunner)\n\n|Property|Type|Description|\n|-|-|-|\n|`name`|string|The name of of the product|\n|`price`|number|the price of the product|\n|`categories`|array|list of categories the product belongs to|\n|`type`|enum|`physical` or `digital`|\n|`weight`|number|how much the product weighs; used for shipping calculations|\n\n## Next Steps\n* To see a full list of filters, see [API Reference > Products > Get All Products > Request Parameters > Query Parameters](https://developer.bigcommerce.com/api-reference/store-management/catalog/products/getproducts).\n* Try creating a product with new attributes.\n* View BigCommerce's [API Reference](https://developer.bigcommerce.com/api-reference) for a list of available APIs, endpoints, and resources.\n\n## Troubleshooting\n\n**Did you get a status of 403 Forbidden?**\n* Make sure **Client ID** and **Access Token** are correct and have scope set to `Products` `Modify`.\n* Make sure your request headers are correct.\n* Be sure you replaced `{store_hash}` with your store hash.\n* Make sure the request URL is correct.\n\n**Did you get a 200 but nothing was returned?**\n* Make sure your store has products.\n\n**Did you get a status of 404?**\n* Check the request URL for errors."}],"children":[]}}}}
